2	100	100	100	0	0.0714249	0	839	0	1.16569	0.493069	1	0.371577	1	67	80	53	8	8	8	0.0247423	0	1600	0.782744	3.09882e-012	1
4	100	100	100	0	0.064678	0	832	0	1.13555	0.527128	1	0.371577	1	82	62	29	8	8	8	0.010101	536	1204	0.904837	5.04348e-007	1.12574
4	100	100	100	0	0.064678	0	832	0	1.13555	0.527128	1	0.371577	1	78	62	29	8	8	8	0.010101	494	1132	0.904837	5.04348e-007	1.11536
46	100	100	100	0	0.061442	0	807	0	1.20538	0.544288	1	0.371577	1	57	45	17	8	8	8	0.02857	0	1536	0.753638	0.000203468	1
46	100	100	100	0	0.061442	0	807	0	1.20538	0.544288	1	0.371577	1	87	16	77	8	8	8	0.0364197	599	1604	0.697289	1.90398e-017	1.11138
