48	100	100	100	0	0.064678	0	1034	0	1.23012	0.527128	1	0.371577	1	76	31	32	9	9	9	0.0335013	951	2136	0.71773	1.12535e-007	1
48	100	100	100	0	0.064678	0	1034	0	1.23012	0.527128	1	0.371577	1	12	70	74	9	9	9	0.014285	672	1799	0.868123	8.53305e-017	1.10613
48	100	100	100	0	0.064678	0	1034	0	1.23012	0.527128	1	0.371577	1	60	14	90	9	9	9	0.0416475	585	2001	0.662119	2.86252e-020	1
