4	100	100	100	0	0.064678	0	832	0	1.13555	0.527128	1	0.371577	1	89	59	82	8	8	8	0.0416475	701	1696	0.662119	1.56288e-018	1.09509
46	100	100	100	0	0.061442	0	807	0	1.20538	0.544288	1	0.371577	1	86	55	34	8	8	8	0.030303	637	1584	0.740818	4.13994e-008	1
48	100	100	100	0	0.064678	0	1034	0	1.23012	0.527128	1	0.371577	1	50	20	40	9	9	9	0.0225865	850	2062	0.79963	2.06115e-009	1.02764
