2	100	100	100	0	0.0714249	0	839	0	1.16569	0.493069	1	0.371577	1	83	91	19	8	8	8	0.0364197	839	1934	0.697289	7.48518e-005	1.16033
4	100	100	100	0	0.064678	0	832	0	1.13555	0.527128	1	0.371577	1	75	39	9	8	8	8	0.02857	0	1478	0.753638	0.011109	1
4	100	100	100	0	0.064678	0	832	0	1.13555	0.527128	1	0.371577	1	59	91	10	8	8	8	0.0416475	518	1394	0.662119	0.00673795	1.02534
4	100	100	100	0	0.064678	0	832	0	1.13555	0.527128	1	0.371577	1	31	84	12	8	8	8	0.0247423	670	1676	0.782744	0.00247875	1
4	100	100	100	0	0.064678	0	832	0	1.13555	0.527128	1	0.371577	1	89	33	38	8	8	8	0.030303	722	1622	0.740818	5.6028e-009	1.0241
4	100	100	100	0	0.064678	0	832	0	1.13555	0.527128	1	0.371577	1	8	13	37	8	8	8	0.030303	0	1580	0.740818	9.23745e-009	1
4	100	100	100	0	0.064678	0	832	0	1.13555	0.527128	1	0.371577	1	72	17	48	8	8	8	0.0377945	0	1748	0.687863	3.77513e-011	1
4	100	100	100	0	0.064678	0	832	0	1.13555	0.527128	1	0.371577	1	21	77	52	8	8	8	0.0416475	761	1840	0.662119	5.10909e-012	1.07495
4	100	100	100	0	0.064678	0	832	0	1.13555	0.527128	1	0.371577	1	77	57	58	8	8	8	0.0377945	671	1560	0.687863	2.54367e-013	1.0506
4	100	100	100	0	0.064678	0	832	0	1.13555	0.527128	1	0.371577	1	39	85	69	8	8	8	0.0377945	571	1565	0.687863	1.03954e-015	1.07997
8	100	100	100	0	0.0515052	0	498	0	1.0706	0.600554	1	0.371577	1	73	86	59	8	8	8	0.020202	0	1476	0.818731	1.54281e-013	1
18	100	100	100	0	0.0524864	0	500	0	1.11024	0.594749	1	0.371577	1	32	38	40	8	8	8	0.030303	0	1728	0.740818	2.06115e-009	1
46	100	100	100	0	0.061442	0	807	0	1.20538	0.544288	1	0.371577	1	53	43	17	8	8	8	0.0462886	0	1642	0.632385	0.000203468	1
46	100	100	100	0	0.061442	0	807	0	1.20538	0.544288	1	0.371577	1	89	53	37	8	8	8	0.0319422	738	1731	0.728893	9.23745e-009	1
46	100	100	100	0	0.061442	0	807	0	1.20538	0.544288	1	0.371577	1	15	45	39	8	8	8	0.02857	681	1574	0.753638	3.39827e-009	1.06263
46	100	100	100	0	0.061442	0	807	0	1.20538	0.544288	1	0.371577	1	70	90	41	8	8	8	0.0416475	679	1600	0.662119	1.25015e-009	1.09811
46	100	100	100	0	0.061442	0	807	0	1.20538	0.544288	1	0.371577	1	37	17	48	8	8	8	0.0349909	0	1690	0.707222	3.77513e-011	1
46	100	100	100	0	0.061442	0	807	0	1.20538	0.544288	1	0.371577	1	64	23	58	8	8	8	0.0377945	0	1784	0.687863	2.54367e-013	1
46	100	100	100	0	0.061442	0	807	0	1.20538	0.544288	1	0.371577	1	10	73	69	8	8	8	0.0174955	488	1408	0.840965	1.03954e-015	1.07495
48	100	100	100	0	0.064678	0	1034	0	1.23012	0.527128	1	0.371577	1	10	32	11	9	9	9	0.010101	774	1690	0.904837	0.00408677	1
48	100	100	100	0	0.064678	0	1034	0	1.23012	0.527128	1	0.371577	1	14	36	11	9	9	9	0.010101	777	1636	0.904837	0.00408677	1
48	100	100	100	0	0.064678	0	1034	0	1.23012	0.527128	1	0.371577	1	21	73	10	9	9	9	0.0364197	942	2196	0.697289	0.00673795	1
48	100	100	100	0	0.064678	0	1034	0	1.23012	0.527128	1	0.371577	1	27	49	11	9	9	9	0.010101	748	1632	0.904837	0.00408677	1.04929
48	100	100	100	0	0.064678	0	1034	0	1.23012	0.527128	1	0.371577	1	39	61	11	9	9	9	0.010101	850	1976	0.904837	0.00408677	1
48	100	100	100	0	0.064678	0	1034	0	1.23012	0.527128	1	0.371577	1	90	79	11	9	9	9	0.0247423	1025	2376	0.782744	0.00408677	1.09387
48	100	100	100	0	0.064678	0	1034	0	1.23012	0.527128	1	0.371577	1	70	71	14	9	9	9	0.010101	585	1404	0.904837	0.000911882	1.0226
48	100	100	100	0	0.064678	0	1034	0	1.23012	0.527128	1	0.371577	1	65	46	15	9	9	9	0.02857	883	2040	0.753638	0.000553084	1.0663
48	100	100	100	0	0.064678	0	1034	0	1.23012	0.527128	1	0.371577	1	22	77	18	9	9	9	0.02857	922	1996	0.753638	0.00012341	1.07065
48	100	100	100	0	0.064678	0	1034	0	1.23012	0.527128	1	0.371577	1	54	60	22	9	9	9	0.020202	970	2199	0.818731	1.67017e-005	1
48	100	100	100	0	0.064678	0	1034	0	1.23012	0.527128	1	0.371577	1	64	55	24	9	9	9	0.0225865	846	2018	0.79963	6.14421e-006	1
48	100	100	100	0	0.064678	0	1034	0	1.23012	0.527128	1	0.371577	1	68	58	27	9	9	9	0.014285	954	2226	0.868123	1.37096e-006	1.02182
48	100	100	100	0	0.064678	0	1034	0	1.23012	0.527128	1	0.371577	1	31	85	27	9	9	9	0.0364197	918	2016	0.697289	1.37096e-006	1.04381
48	100	100	100	0	0.064678	0	1034	0	1.23012	0.527128	1	0.371577	1	35	88	30	9	9	9	0.0377945	938	2102	0.687863	3.05902e-007	1.1213
48	100	100	100	0	0.064678	0	1034	0	1.23012	0.527128	1	0.371577	1	33	88	34	9	9	9	0.0319422	915	2052	0.728893	4.13994e-008	1.0691
48	100	100	100	0	0.064678	0	1034	0	1.23012	0.527128	1	0.371577	1	13	81	34	9	9	9	0.0319422	764	2056	0.728893	4.13994e-008	1.08657
48	100	100	100	0	0.064678	0	1034	0	1.23012	0.527128	1	0.371577	1	46	19	42	9	9	9	0.02857	797	2012	0.753638	7.58256e-010	1.04697
48	100	100	100	0	0.064678	0	1034	0	1.23012	0.527128	1	0.371577	1	78	67	30	9	9	9	0.020202	567	1772	0.818731	3.05902e-007	1.04006
48	100	100	100	0	0.064678	0	1034	0	1.23012	0.527128	1	0.371577	1	69	90	41	9	9	9	0.0335013	752	1944	0.71773	1.25015e-009	1.0226
48	100	100	100	0	0.064678	0	1034	0	1.23012	0.527128	1	0.371577	1	65	86	41	9	9	9	0.0335013	679	1624	0.71773	1.25015e-009	1
48	100	100	100	0	0.064678	0	1034	0	1.23012	0.527128	1	0.371577	1	53	90	49	9	9	9	0.0319422	711	2048	0.728893	2.28973e-011	1.16854
48	100	100	100	0	0.064678	0	1034	0	1.23012	0.527128	1	0.371577	1	34	16	46	9	9	9	0.050505	749	1936	0.606531	1.02619e-010	1.04381
48	100	100	100	0	0.064678	0	1034	0	1.23012	0.527128	1	0.371577	1	27	18	49	9	9	9	0.0377945	576	1648	0.687863	2.28973e-011	1.02182
48	100	100	100	0	0.064678	0	1034	0	1.23012	0.527128	1	0.371577	1	86	22	53	9	9	9	0.0377945	937	2010	0.687863	3.09882e-012	1.0226
48	100	100	100	0	0.064678	0	1034	0	1.23012	0.527128	1	0.371577	1	42	76	49	9	9	9	0.02857	955	2230	0.753638	2.28973e-011	1.07065
48	100	100	100	0	0.064678	0	1034	0	1.23012	0.527128	1	0.371577	1	38	73	48	9	9	9	0.02857	815	1904	0.753638	3.77513e-011	1.1213
48	100	100	100	0	0.064678	0	1034	0	1.23012	0.527128	1	0.371577	1	34	70	48	9	9	9	0.020202	631	1479	0.818731	3.77513e-011	1.07532
48	100	100	100	0	0.064678	0	1034	0	1.23012	0.527128	1	0.371577	1	30	69	48	9	9	9	0.010101	551	1330	0.904837	3.77513e-011	1.08657
48	100	100	100	0	0.064678	0	1034	0	1.23012	0.527128	1	0.371577	1	22	69	48	9	9	9	0.010101	532	1354	0.904837	3.77513e-011	1.06743
48	100	100	100	0	0.064678	0	1034	0	1.23012	0.527128	1	0.371577	1	18	70	51	9	9	9	0.0225865	629	1700	0.79963	8.42346e-012	1.07967
48	100	100	100	0	0.064678	0	1034	0	1.23012	0.527128	1	0.371577	1	43	40	56	9	9	9	0.0319422	819	1954	0.728893	6.9144e-013	1.10613
48	100	100	100	0	0.064678	0	1034	0	1.23012	0.527128	1	0.371577	1	51	46	56	9	9	9	0.0349909	854	2122	0.707222	6.9144e-013	1.10614
48	100	100	100	0	0.064678	0	1034	0	1.23012	0.527128	1	0.371577	1	62	58	55	9	9	9	0.030303	856	2024	0.740818	1.13999e-012	1.07065
48	100	100	100	0	0.064678	0	1034	0	1.23012	0.527128	1	0.371577	1	74	62	55	9	9	9	0.030303	834	1966	0.740818	1.13999e-012	1.10614
48	100	100	100	0	0.064678	0	1034	0	1.23012	0.527128	1	0.371577	1	50	55	60	9	9	9	0.0174955	767	1894	0.840965	9.35762e-014	1.06823
48	100	100	100	0	0.064678	0	1034	0	1.23012	0.527128	1	0.371577	1	42	56	64	9	9	9	0.020202	754	1899	0.818731	1.26642e-014	1.10613
48	100	100	100	0	0.064678	0	1034	0	1.23012	0.527128	1	0.371577	1	19	50	65	9	9	9	0.0335013	887	2144	0.71773	7.6812e-015	1.0691
48	100	100	100	0	0.064678	0	1034	0	1.23012	0.527128	1	0.371577	1	27	53	65	9	9	9	0.0377945	863	2176	0.687863	7.6812e-015	1.0691
48	100	100	100	0	0.064678	0	1034	0	1.23012	0.527128	1	0.371577	1	34	43	77	9	9	9	0.014285	750	1924	0.868123	1.90398e-017	1.03722
48	100	100	100	0	0.064678	0	1034	0	1.23012	0.527128	1	0.371577	1	56	49	78	9	9	9	0.0364197	669	1868	0.697289	1.15482e-017	1.06181
48	100	100	100	0	0.064678	0	1034	0	1.23012	0.527128	1	0.371577	1	20	61	86	9	9	9	0.0225865	868	2010	0.79963	2.11513e-019	1.12365
48	100	100	100	0	0.064678	0	1034	0	1.23012	0.527128	1	0.371577	1	24	12	84	9	9	9	0.0416475	881	2165	0.662119	5.74952e-019	1
48	100	100	100	0	0.064678	0	1034	0	1.23012	0.527128	1	0.371577	1	57	40	83	9	9	9	0.0364197	801	1904	0.697289	9.47936e-019	1.07159
48	100	100	100	0	0.064678	0	1034	0	1.23012	0.527128	1	0.371577	1	45	34	83	9	9	9	0.02857	911	2300	0.753638	9.47936e-019	1.09003
48	100	100	100	0	0.064678	0	1034	0	1.23012	0.527128	1	0.371577	1	68	50	90	9	9	9	0.0377945	850	2179	0.687863	2.86252e-020	1
48	100	100	100	0	0.064678	0	1034	0	1.23012	0.527128	1	0.371577	1	29	61	90	9	9	9	0.0364197	997	2440	0.697289	2.86252e-020	1
48	100	100	100	0	0.064678	0	1034	0	1.23012	0.527128	1	0.371577	1	77	85	89	9	9	9	0.0377945	845	2056	0.687863	4.7195e-020	1
48	100	100	100	0	0.064678	0	1034	0	1.23012	0.527128	1	0.371577	1	73	86	86	9	9	9	0.0319422	869	2124	0.728893	2.11513e-019	1.06823
