8	100	100	100	0	0.0515052	0	498	0	1.0706	0.600554	1	0.371577	1	77	87	57	8	8	8	0.030303	0	1600	0.740818	4.1938e-013	1
46	100	100	100	0	0.061442	0	807	0	1.20538	0.544288	1	0.371577	1	43	36	15	8	8	8	0.020202	0	1238	0.818731	0.000553084	1
48	100	100	100	0	0.064678	0	1034	0	1.23012	0.527128	1	0.371577	1	78	64	56	9	9	9	0.0225865	850	2072	0.79963	6.9144e-013	1.08287
48	100	100	100	0	0.064678	0	1034	0	1.23012	0.527128	1	0.371577	1	80	74	57	9	9	9	0.010101	637	1646	0.904837	4.1938e-013	1.11862
